[gd_scene format=2]

[node name="GameScene" type="Spatial"]

[node name="Character" type="Spatial" parent="."]

[node name="Actions" type="Node" parent="Character"]

[node name="Move" type="Node" parent="Character/Actions"]

