[gd_resource type="Environment" load_steps=2 format=2]

[sub_resource type="ProceduralSky" id=1]

[resource]
background_mode = 2
background_sky = SubResource( 1 )
background_color = Color( 0.0625, 0.0625, 0.0625, 1 )
fog_height_min = 0.0
fog_height_max = 100.0
tonemap_mode = 3
auto_exposure_scale = 0.2
auto_exposure_min_luma = 0.02
ssao_enabled = true
dof_blur_far_enabled = true
dof_blur_far_transition = 6.0
dof_blur_far_amount = 0.05
glow_enabled = true
